R | Rookie site
…
As a basic descriptive, contruct one way and two way cross tabulation summary, showing count of each categories. This is because logistic regression uses count data, much like in a non-parametric model.

      Logistic Regression: Part I - Fundamentals

      Likelihood theory

Probit models were the first of those being used to analyze non-normal data using non-linear models. In an early example of probit regression, Bliss(1934) describes an experiment in which nicotine is applied to aphids and the proportion killed is recorded. As an appendix to a paper Bliss wrote a year later (Bliss, 1935), Fisher (1935) outlines the use of maximum likelihood to obtain estimates of the probit model.

      Disease epidemiology: A simulation scenario of infectious viral disease (COVID-19)

      SIR model of COVID-19 epidemiology

## # A tibble: 5,555 × 6
##    beta_id  time       S      I      R beta_value
##    <chr>   <dbl>   <dbl>  <dbl>  <dbl>      <dbl>
##  1 1         0   0.7     0.02   0.01          3.2
##  2 1         0.5 0.662   0.0541 0.0134        3.2
##  3 1         1   0.575   0.133  0.0223        3.2
##  4 1         1.5 0.420   0.268  0.0420        3.2
##  5 1         2   0.242   0.411  0.0763        3.2
##  6 1         2.5 0.117   0.491  0.122         3.2
##  7 1         3   0.0521  0.506  0.172         3.2
##  8 1         3.5 0.0235  0.484  0.222         3.2
##  9 1         4   0.0111  0.450  0.269         3.2
## 10 1         4.5 0.00559 0.413  0.312         3.2
## # ℹ 5,545 more rows
…
