…
## [1] 2.233766 2.226667 3.000000 1.485294 3.061224 1.483333

Why quote at-all

Data masking

Allows you to refer to data objects directly

# because transmute() is a quoting function,
transmute(starwars, height / mass)

## Warning: The `printer` argument is soft-deprecated as of rlang 0.3.0.
## This warning is displayed once per session.

## # A tibble: 87 x 1
##    `height/mass`
##            <dbl>
##  1          2.23
##  2          2.23
##  3          3   
##  4          1.49
##  5          3.06
##  6          1.48
##  7          2.2 
##  8          3.03
##  9          2.18
## 10          2.36
## # ... with 77 more rows
…
# rowwise operation will also enable the same
my_fun <- function(param_a, param_b){
  rep(5, param_a) * param_b
}

dplyr::as.tbl(params) %>%
  rowwise() %>% 
  dplyr::mutate(test_var = list(my_fun(param_a, param_b))) %>% 
  tidyr::unnest()

## # A tibble: 144 x 5
##    param_a param_b param_c param_d test_var
##      <dbl>   <dbl>   <dbl>   <dbl>    <dbl>
##  1       2       3      50       1       15
##  2       2       3      50       1       15
##  3       4       3      50       1       15
##  4       4       3      50       1       15
##  5       4       3      50       1       15
##  6       4       3      50       1       15
##  7       6       3      50       1       15
##  8       6       3      50       1       15
##  9       6       3      50       1       15
## 10       6       3      50       1       15
## # ... with 134 more rows

# of all pmap solution could be the most flexible option
dplyr::as.tbl(params) %>%
  dplyr::mutate(test_var = purrr::pmap(list(x = param_a
                                            ,y = param_b
                                            ,z = param_c
                                            ,u = param_d),
                                       ~ rep(5,..1)*..2)
  )

## # A tibble: 36 x 5
##    param_a param_b param_c param_d test_var 
##      <dbl>   <dbl>   <dbl>   <dbl> <list>   
##  1       2       3      50       1 <dbl [2]>
##  2       4       3      50       1 <dbl [4]>
##  3       6       3      50       1 <dbl [6]>
##  4       2       6      50       1 <dbl [2]>
##  5       4       6      50       1 <dbl [4]>
##  6       6       6      50       1 <dbl [6]>
##  7       2       9      50       1 <dbl [2]>
##  8       4       9      50       1 <dbl [4]>
##  9       6       9      50       1 <dbl [6]>
## 10       2       3     100       1 <dbl [2]>
## # ... with 26 more rows
…
The do call is combined with group_by to get any summary of current dataframe

iris %>%
  group_by(Species) %>%
  do({
    mod <- lm(Sepal.Length ~ Sepal.Width, data = .)
    pred <- predict(mod, newdata = .["Sepal.Width"])
    data.frame(., pred)
  })

## # A tibble: 150 x 6
## # Groups:   Species [3]
##    Sepal.Length Sepal.Width Petal.Length Petal.Width Species  pred
##           <dbl>       <dbl>        <dbl>       <dbl> <fct>   <dbl>
##  1          5.1         3.5          1.4         0.2 setosa   5.06
##  2          4.9         3            1.4         0.2 setosa   4.71
##  3          4.7         3.2          1.3         0.2 setosa   4.85
##  4          4.6         3.1          1.5         0.2 setosa   4.78
##  5          5           3.6          1.4         0.2 setosa   5.12
##  6          5.4         3.9          1.7         0.4 setosa   5.33
##  7          4.6         3.4          1.4         0.3 setosa   4.99
##  8          5           3.4          1.5         0.2 setosa   4.99
##  9          4.4         2.9          1.4         0.2 setosa   4.64
## 10          4.9         3.1          1.5         0.1 setosa   4.78
## # ... with 140 more rows
…
gap_fitted <- gap_nested %>%
  mutate(fit = map(data, ~ lm(lifeExp ~ yr1952, data = .x)))
gap_fitted

## # A tibble: 33 x 3
##    country          data              fit     
##    <fct>            <list>            <list>  
##  1 Afghanistan      <tibble [12 x 6]> <S3: lm>
##  2 Bahrain          <tibble [12 x 6]> <S3: lm>
##  3 Bangladesh       <tibble [12 x 6]> <S3: lm>
##  4 Cambodia         <tibble [12 x 6]> <S3: lm>
##  5 China            <tibble [12 x 6]> <S3: lm>
##  6 Hong Kong, China <tibble [12 x 6]> <S3: lm>
##  7 India            <tibble [12 x 6]> <S3: lm>
##  8 Indonesia        <tibble [12 x 6]> <S3: lm>
##  9 Iran             <tibble [12 x 6]> <S3: lm>
## 10 Iraq             <tibble [12 x 6]> <S3: lm>
## # ... with 23 more rows
…
# # getting custom summary functions with purrr and dplyr verbs
mtcars %>% 
  group_by(cyl) %>% 
  tidyr::nest() %>% 
  mutate(model = purrr::map(data, ~lm(qsec ~ hp, .)),
         coef  = purrr::map_dbl(model, ~coef(.)[2])) %>% 
  tidyr::unnest(data)

## # A tibble: 32 x 12
##      cyl    coef   mpg  disp    hp  drat    wt  qsec    vs    am  gear
##    <dbl>   <dbl> <dbl> <dbl> <dbl> <dbl> <dbl> <dbl> <dbl> <dbl> <dbl>
##  1     6 -0.0442  21    160    110  3.9   2.62  16.5     0     1     4
##  2     6 -0.0442  21    160    110  3.9   2.88  17.0     0     1     4
##  3     6 -0.0442  21.4  258    110  3.08  3.22  19.4     1     0     3
##  4     6 -0.0442  18.1  225    105  2.76  3.46  20.2     1     0     3
##  5     6 -0.0442  19.2  168.   123  3.92  3.44  18.3     1     0     4
##  6     6 -0.0442  17.8  168.   123  3.92  3.44  18.9     1     0     4
##  7     6 -0.0442  19.7  145    175  3.62  2.77  15.5     0     1     5
##  8     4 -0.0143  22.8  108     93  3.85  2.32  18.6     1     1     4
##  9     4 -0.0143  24.4  147.    62  3.69  3.19  20       1     0     4
## 10     4 -0.0143  22.8  141.    95  3.92  3.15  22.9     1     0     4
## # ... with 22 more rows, and 1 more variable: carb <dbl>
…
# # yet better way to capture the results -- residuals.
# # then it can be combined with original data. 
mtcars %>%
  group_by(cyl) %>%
  do(model = lm(mpg ~ wt, data=.)) %>%
  do((function(reg_mod) {
    data.frame(reg_res = residuals(reg_mod$model))
  })(.))

## Source: local data frame [32 x 1]
## Groups: <by row>
## 
## # A tibble: 32 x 1
##    reg_res
##  *   <dbl>
##  1 -3.67  
##  2  2.84  
##  3  1.02  
##  4  5.25  
##  5 -0.0513
##  6  4.69  
##  7 -4.15  
##  8 -1.34  
##  9 -1.49  
## 10 -0.627 
## # ... with 22 more rows
…
## Parsed with column specification:
## cols(
##   AGE = col_integer(),
##   Year = col_integer(),
##   fertility = col_double()
## )

# # binding predictions to original dataframe
fertility %>%
  group_by(Year) %>%
  do(data.frame(.,pred = predict(mgcv::gam(fertility ~ s(AGE), data=.))))

## # A tibble: 60 x 4
## # Groups:   Year [2]
##      AGE  Year fertility     pred
##    <int> <int>     <dbl>    <dbl>
##  1    15  1930      5.17   -0.828
##  2    16  1930     14.2    16.2  
##  3    17  1930     27.7    33.4  
##  4    18  1930     44.6    51.1  
##  5    19  1930     59.1    69.2  
##  6    20  1930     89.7    87.3  
##  7    21  1930    105.    104.   
##  8    22  1930    120.    120.   
##  9    23  1930    137.    132.   
## 10    24  1930    149.    141.   
## # ... with 50 more rows

# # same but different approach
do.call(rbind,
        lapply(split(fertility, fertility$Year), function(df) {
          df$pred <- predict(mgcv::gam(fertility ~ s(AGE), data=df))
          df
        }))

## # A tibble: 60 x 4
##      AGE  Year fertility     pred
##  * <int> <int>     <dbl>    <dbl>
##  1    15  1930      5.17   -0.828
##  2    16  1930     14.2    16.2  
##  3    17  1930     27.7    33.4  
##  4    18  1930     44.6    51.1  
##  5    19  1930     59.1    69.2  
##  6    20  1930     89.7    87.3  
##  7    21  1930    105.    104.   
##  8    22  1930    120.    120.   
##  9    23  1930    137.    132.   
## 10    24  1930    149.    141.   
## # ... with 50 more rows

# # same using data.table library
fertility %>%
  data.table::data.table() %>%
  group_by(Year) %>%
  mutate(pred = predict(mgcv::gam(fertility ~ s(AGE))))

## # A tibble: 60 x 4
## # Groups:   Year [2]
##      AGE  Year fertility     pred
##    <int> <int>     <dbl>    <dbl>
##  1    15  1930      5.17   -0.828
##  2    16  1930     14.2    16.2  
##  3    17  1930     27.7    33.4  
##  4    18  1930     44.6    51.1  
##  5    19  1930     59.1    69.2  
##  6    20  1930     89.7    87.3  
##  7    21  1930    105.    104.   
##  8    22  1930    120.    120.   
##  9    23  1930    137.    132.   
## 10    24  1930    149.    141.   
## # ... with 50 more rows
…
## # A tibble: 6 x 6
##     cyl term        estimate std.error statistic  p.value
##   <dbl> <chr>          <dbl>     <dbl>     <dbl>    <dbl>
## 1     6 (Intercept)  29.6      1.23        24.1  3.58e-21
## 2     6 disp         -0.0412   0.00471     -8.75 9.38e-10
## 3     4 (Intercept)  29.6      1.23        24.1  3.58e-21
## 4     4 disp         -0.0412   0.00471     -8.75 9.38e-10
## 5     8 (Intercept)  29.6      1.23        24.1  3.58e-21
## 6     8 disp         -0.0412   0.00471     -8.75 9.38e-10

prediction <- by_cyl %>% tidyr::unnest(pred)
prediction

## # A tibble: 96 x 11
##      cyl .rownames   mpg  disp .fitted .se.fit .resid   .hat .sigma .cooksd
##    <dbl> <chr>     <dbl> <dbl>   <dbl>   <dbl>  <dbl>  <dbl>  <dbl>   <dbl>
##  1     6 Mazda RX4  21    160     23.0   0.664 -2.01  0.0418   3.29 8.65e-3
##  2     6 Mazda RX~  21    160     23.0   0.664 -2.01  0.0418   3.29 8.65e-3
##  3     6 Datsun 7~  22.8  108     25.1   0.815 -2.35  0.0629   3.28 1.87e-2
##  4     6 Hornet 4~  21.4  258     19.0   0.589  2.43  0.0328   3.27 9.83e-3
##  5     6 Hornet S~  18.7  360     14.8   0.838  3.94  0.0663   3.22 5.58e-2
##  6     6 Valiant    18.1  225     20.3   0.575 -2.23  0.0313   3.28 7.82e-3
##  7     6 Duster 3~  14.3  360     14.8   0.838 -0.462 0.0663   3.31 7.70e-4
##  8     6 Merc 240D  24.4  147.    23.6   0.698  0.846 0.0461   3.30 1.72e-3
##  9     6 Merc 230   22.8  141.    23.8   0.714 -0.997 0.0482   3.30 2.50e-3
## 10     6 Merc 280   19.2  168.    22.7   0.647 -3.49  0.0396   3.24 2.48e-2
## # ... with 86 more rows, and 1 more variable: .std.resid <dbl>
…
