…
# Why quote at-all

1. Data masking
2. Allows you to refer to data objects directly


```r
# because transmute() is a quoting function,
transmute(starwars, height / mass)
```

```
## # A tibble: 87 × 1
##    `height/mass`
##            <dbl>
##  1          2.23
##  2          2.23
##  3          3   
##  4          1.49
##  5          3.06
##  6          1.48
##  7          2.2 
##  8          3.03
##  9          2.18
## 10          2.36
## # ℹ 77 more rows
```
…
```
## Warning: `as.tbl()` was deprecated in dplyr 1.0.0.
## ℹ Please use `tibble::as_tibble()` instead.
## `cols` is now required when using `unnest()`. ℹ Please use `cols =
## c(test_var)`.
## Call `lifecycle::last_lifecycle_warnings()` to see where this warning was
## generated.
```

```
## # A tibble: 144 × 5
##    param_a param_b param_c param_d test_var
##      <dbl>   <dbl>   <dbl>   <dbl>    <dbl>
##  1       2       3      50       1       15
##  2       2       3      50       1       15
##  3       4       3      50       1       15
##  4       4       3      50       1       15
##  5       4       3      50       1       15
##  6       4       3      50       1       15
##  7       6       3      50       1       15
##  8       6       3      50       1       15
##  9       6       3      50       1       15
## 10       6       3      50       1       15
## # ℹ 134 more rows
```

```r
# of all pmap solution could be the most flexible option
dplyr::as_tibble(params) %>%
  dplyr::mutate(test_var = purrr::pmap(list(x = param_a
                                            ,y = param_b
                                            ,z = param_c
                                            ,u = param_d),
                                       ~ rep(5,..1)*..2)
  )
```

```
## # A tibble: 36 × 5
##    param_a param_b param_c param_d test_var 
##      <dbl>   <dbl>   <dbl>   <dbl> <list>   
##  1       2       3      50       1 <dbl [2]>
##  2       4       3      50       1 <dbl [4]>
##  3       6       3      50       1 <dbl [6]>
##  4       2       6      50       1 <dbl [2]>
##  5       4       6      50       1 <dbl [4]>
##  6       6       6      50       1 <dbl [6]>
##  7       2       9      50       1 <dbl [2]>
##  8       4       9      50       1 <dbl [4]>
##  9       6       9      50       1 <dbl [6]>
## 10       2       3     100       1 <dbl [2]>
## # ℹ 26 more rows
```


# Apply a function to certain columns only, by rows


```r
mtcars %>% 
  select(am, gear, carb) %>% 
  purrrlyr::by_row(sum, .collate = "cols", .to = "sum_am_gear_carb")
```

```
## # A tibble: 32 × 4
##       am  gear  carb sum_am_gear_carb
##    <dbl> <dbl> <dbl>            <dbl>
##  1     1     4     4                9
##  2     1     4     4                9
##  3     1     4     1                6
##  4     0     3     1                4
##  5     0     3     2                5
##  6     0     3     1                4
##  7     0     3     4                7
##  8     0     4     2                6
##  9     0     4     2                6
## 10     0     4     4                8
## # ℹ 22 more rows
```
…
The do call is combined with group_by to get any summary of current dataframe


```r
iris %>%
  group_by(Species) %>%
  do({
    mod <- lm(Sepal.Length ~ Sepal.Width, data = .)
    pred <- predict(mod, newdata = .["Sepal.Width"])
    data.frame(., pred)
  })
```

```
## # A tibble: 150 × 6
## # Groups:   Species [3]
##    Sepal.Length Sepal.Width Petal.Length Petal.Width Species  pred
##           <dbl>       <dbl>        <dbl>       <dbl> <fct>   <dbl>
##  1          5.1         3.5          1.4         0.2 setosa   5.06
##  2          4.9         3            1.4         0.2 setosa   4.71
##  3          4.7         3.2          1.3         0.2 setosa   4.85
##  4          4.6         3.1          1.5         0.2 setosa   4.78
##  5          5           3.6          1.4         0.2 setosa   5.12
##  6          5.4         3.9          1.7         0.4 setosa   5.33
##  7          4.6         3.4          1.4         0.3 setosa   4.99
##  8          5           3.4          1.5         0.2 setosa   4.99
##  9          4.4         2.9          1.4         0.2 setosa   4.64
## 10          4.9         3.1          1.5         0.1 setosa   4.78
## # ℹ 140 more rows
```
…
```r
gap_fitted <- gap_nested %>%
  mutate(fit = map(data, ~ lm(lifeExp ~ yr1952, data = .x)))
gap_fitted
```

```
## # A tibble: 33 × 3
## # Groups:   country [33]
##    country          data              fit   
##    <fct>            <list>            <list>
##  1 Afghanistan      <tibble [12 × 6]> <lm>  
##  2 Bahrain          <tibble [12 × 6]> <lm>  
##  3 Bangladesh       <tibble [12 × 6]> <lm>  
##  4 Cambodia         <tibble [12 × 6]> <lm>  
##  5 China            <tibble [12 × 6]> <lm>  
##  6 Hong Kong, China <tibble [12 × 6]> <lm>  
##  7 India            <tibble [12 × 6]> <lm>  
##  8 Indonesia        <tibble [12 × 6]> <lm>  
##  9 Iran             <tibble [12 × 6]> <lm>  
## 10 Iraq             <tibble [12 × 6]> <lm>  
## # ℹ 23 more rows
```

```r
gap_fitted <- gap_fitted %>%
  mutate(
    intercept = map_dbl(fit, ~ coef(.x)[["(Intercept)"]]),
    slope = map_dbl(fit, ~ coef(.x)[["yr1952"]]),
    r_squared = map_dbl(fit, ~ summary(.x)[["r.squared"]])
  )

gap_fitted %>% 
  top_n(n = 5, wt = r_squared) # whoa! Nepal is 4th
```

```
## # A tibble: 33 × 6
## # Groups:   country [33]
##    country          data              fit    intercept slope r_squared
##    <fct>            <list>            <list>     <dbl> <dbl>     <dbl>
##  1 Afghanistan      <tibble [12 × 6]> <lm>        29.9 0.275     0.948
##  2 Bahrain          <tibble [12 × 6]> <lm>        52.7 0.468     0.967
##  3 Bangladesh       <tibble [12 × 6]> <lm>        36.1 0.498     0.989
##  4 Cambodia         <tibble [12 × 6]> <lm>        37.0 0.396     0.639
##  5 China            <tibble [12 × 6]> <lm>        47.2 0.531     0.871
##  6 Hong Kong, China <tibble [12 × 6]> <lm>        63.4 0.366     0.972
##  7 India            <tibble [12 × 6]> <lm>        39.3 0.505     0.968
##  8 Indonesia        <tibble [12 × 6]> <lm>        36.9 0.635     0.997
##  9 Iran             <tibble [12 × 6]> <lm>        45.0 0.497     0.995
## 10 Iraq             <tibble [12 × 6]> <lm>        50.1 0.235     0.546
## # ℹ 23 more rows
```
…
```r
# # .f should be able to work with a list or a data frame. As it
# happens, sum() handles data frame so the following works:
mtcars %>% purrrlyr::by_row(sum)
```

```
## # A tibble: 32 × 12
##      mpg   cyl  disp    hp  drat    wt  qsec    vs    am  gear  carb .out     
##    <dbl> <dbl> <dbl> <dbl> <dbl> <dbl> <dbl> <dbl> <dbl> <dbl> <dbl> <list>   
##  1  21       6  160    110  3.9   2.62  16.5     0     1     4     4 <dbl [1]>
##  2  21       6  160    110  3.9   2.88  17.0     0     1     4     4 <dbl [1]>
##  3  22.8     4  108     93  3.85  2.32  18.6     1     1     4     1 <dbl [1]>
##  4  21.4     6  258    110  3.08  3.22  19.4     1     0     3     1 <dbl [1]>
##  5  18.7     8  360    175  3.15  3.44  17.0     0     0     3     2 <dbl [1]>
##  6  18.1     6  225    105  2.76  3.46  20.2     1     0     3     1 <dbl [1]>
##  7  14.3     8  360    245  3.21  3.57  15.8     0     0     3     4 <dbl [1]>
##  8  24.4     4  147.    62  3.69  3.19  20       1     0     4     2 <dbl [1]>
##  9  22.8     4  141.    95  3.92  3.15  22.9     1     0     4     2 <dbl [1]>
## 10  19.2     6  168.   123  3.92  3.44  18.3     1     0     4     4 <dbl [1]>
## # ℹ 22 more rows
```
```r
# # Other functions such as mean() may need to be adjusted with one
# # of the lift_xy() helpers:
mtcars %>% purrrlyr::by_row(purrr::lift_vl(mean))
```

```
## Warning: `lift_vl()` was deprecated in purrr 1.0.0.
## This warning is displayed once every 8 hours.
## Call `lifecycle::last_lifecycle_warnings()` to see where this warning was
## generated.
```

```
## # A tibble: 32 × 12
##      mpg   cyl  disp    hp  drat    wt  qsec    vs    am  gear  carb .out     
##    <dbl> <dbl> <dbl> <dbl> <dbl> <dbl> <dbl> <dbl> <dbl> <dbl> <dbl> <list>   
##  1  21       6  160    110  3.9   2.62  16.5     0     1     4     4 <dbl [1]>
##  2  21       6  160    110  3.9   2.88  17.0     0     1     4     4 <dbl [1]>
##  3  22.8     4  108     93  3.85  2.32  18.6     1     1     4     1 <dbl [1]>
##  4  21.4     6  258    110  3.08  3.22  19.4     1     0     3     1 <dbl [1]>
##  5  18.7     8  360    175  3.15  3.44  17.0     0     0     3     2 <dbl [1]>
##  6  18.1     6  225    105  2.76  3.46  20.2     1     0     3     1 <dbl [1]>
##  7  14.3     8  360    245  3.21  3.57  15.8     0     0     3     4 <dbl [1]>
##  8  24.4     4  147.    62  3.69  3.19  20       1     0     4     2 <dbl [1]>
##  9  22.8     4  141.    95  3.92  3.15  22.9     1     0     4     2 <dbl [1]>
## 10  19.2     6  168.   123  3.92  3.44  18.3     1     0     4     4 <dbl [1]>
## # ℹ 22 more rows
```

```r
# To run a function with invoke_rows(), make sure it is variadic (that
# it accepts dots) or that .f's signature is compatible with the
# column names
mtcars %>% purrrlyr::invoke_rows(.f = sum)
```

```
## # A tibble: 32 × 12
##      mpg   cyl  disp    hp  drat    wt  qsec    vs    am  gear  carb .out     
##    <dbl> <dbl> <dbl> <dbl> <dbl> <dbl> <dbl> <dbl> <dbl> <dbl> <dbl> <list>   
##  1  21       6  160    110  3.9   2.62  16.5     0     1     4     4 <dbl [1]>
##  2  21       6  160    110  3.9   2.88  17.0     0     1     4     4 <dbl [1]>
##  3  22.8     4  108     93  3.85  2.32  18.6     1     1     4     1 <dbl [1]>
##  4  21.4     6  258    110  3.08  3.22  19.4     1     0     3     1 <dbl [1]>
##  5  18.7     8  360    175  3.15  3.44  17.0     0     0     3     2 <dbl [1]>
##  6  18.1     6  225    105  2.76  3.46  20.2     1     0     3     1 <dbl [1]>
##  7  14.3     8  360    245  3.21  3.57  15.8     0     0     3     4 <dbl [1]>
##  8  24.4     4  147.    62  3.69  3.19  20       1     0     4     2 <dbl [1]>
##  9  22.8     4  141.    95  3.92  3.15  22.9     1     0     4     2 <dbl [1]>
## 10  19.2     6  168.   123  3.92  3.44  18.3     1     0     4     4 <dbl [1]>
## # ℹ 22 more rows
```

```r
mtcars %>% purrrlyr::invoke_rows(.f = purrr::lift_vd(mean))
```

```
## Warning: `lift_vd()` was deprecated in purrr 1.0.0.
## This warning is displayed once every 8 hours.
## Call `lifecycle::last_lifecycle_warnings()` to see where this warning was
## generated.
```

```
## # A tibble: 32 × 12
##      mpg   cyl  disp    hp  drat    wt  qsec    vs    am  gear  carb .out     
##    <dbl> <dbl> <dbl> <dbl> <dbl> <dbl> <dbl> <dbl> <dbl> <dbl> <dbl> <list>   
##  1  21       6  160    110  3.9   2.62  16.5     0     1     4     4 <dbl [1]>
##  2  21       6  160    110  3.9   2.88  17.0     0     1     4     4 <dbl [1]>
##  3  22.8     4  108     93  3.85  2.32  18.6     1     1     4     1 <dbl [1]>
##  4  21.4     6  258    110  3.08  3.22  19.4     1     0     3     1 <dbl [1]>
##  5  18.7     8  360    175  3.15  3.44  17.0     0     0     3     2 <dbl [1]>
##  6  18.1     6  225    105  2.76  3.46  20.2     1     0     3     1 <dbl [1]>
##  7  14.3     8  360    245  3.21  3.57  15.8     0     0     3     4 <dbl [1]>
##  8  24.4     4  147.    62  3.69  3.19  20       1     0     4     2 <dbl [1]>
##  9  22.8     4  141.    95  3.92  3.15  22.9     1     0     4     2 <dbl [1]>
## 10  19.2     6  168.   123  3.92  3.44  18.3     1     0     4     4 <dbl [1]>
## # ℹ 22 more rows
```

```r
# # invoke_rows() with cols collation is equivalent to plyr::mdply()
p <- expand.grid(mean = 1:5, sd = seq(0, 1, length = 10))
p %>% purrrlyr::invoke_rows(.f = rnorm, n = 5, .collate = "cols")
```

```
## # A tibble: 50 × 7
##     mean    sd .out1 .out2 .out3 .out4 .out5
##    <int> <dbl> <dbl> <dbl> <dbl> <dbl> <dbl>
##  1     1 0     1      1     1    1     1    
##  2     2 0     2      2     2    2     2    
##  3     3 0     3      3     3    3     3    
##  4     4 0     4      4     4    4     4    
##  5     5 0     5      5     5    5     5    
##  6     1 0.111 0.966  1.17  1.04 0.931 0.754
##  7     2 0.111 2.12   2.00  2.00 2.10  2.09 
##  8     3 0.111 3.07   3.10  3.09 3.01  2.78 
##  9     4 0.111 4.07   3.99  3.98 3.84  3.95 
## 10     5 0.111 5.05   5.15  4.99 5.04  4.99 
## # ℹ 40 more rows
```

```r
# p %>% plyr::mdply(rnorm, n = 5) %>% dplyr::tbl_df()

# # To integrate the result as part of the data frame, use rows or
# # cols collation:
mtcars[1:2] %>% purrrlyr::by_row(function(x) 1:5)
```

```
## # A tibble: 32 × 3
##      mpg   cyl .out     
##    <dbl> <dbl> <list>   
##  1  21       6 <int [5]>
##  2  21       6 <int [5]>
##  3  22.8     4 <int [5]>
##  4  21.4     6 <int [5]>
##  5  18.7     8 <int [5]>
##  6  18.1     6 <int [5]>
##  7  14.3     8 <int [5]>
##  8  24.4     4 <int [5]>
##  9  22.8     4 <int [5]>
## 10  19.2     6 <int [5]>
## # ℹ 22 more rows
```

```r
mtcars[1:2] %>% purrrlyr::by_row(function(x) 1:5, .collate = "rows")
```

```
## # A tibble: 160 × 4
##      mpg   cyl  .row  .out
##    <dbl> <dbl> <int> <int>
##  1    21     6     1     1
##  2    21     6     1     2
##  3    21     6     1     3
##  4    21     6     1     4
##  5    21     6     1     5
##  6    21     6     2     1
##  7    21     6     2     2
##  8    21     6     2     3
##  9    21     6     2     4
## 10    21     6     2     5
## # ℹ 150 more rows
```

```r
mtcars[1:2] %>% purrrlyr::by_row(function(x) 1:5, .collate = "cols")
```

```
## # A tibble: 32 × 7
##      mpg   cyl .out1 .out2 .out3 .out4 .out5
##    <dbl> <dbl> <int> <int> <int> <int> <int>
##  1  21       6     1     2     3     4     5
##  2  21       6     1     2     3     4     5
##  3  22.8     4     1     2     3     4     5
##  4  21.4     6     1     2     3     4     5
##  5  18.7     8     1     2     3     4     5
##  6  18.1     6     1     2     3     4     5
##  7  14.3     8     1     2     3     4     5
##  8  24.4     4     1     2     3     4     5
##  9  22.8     4     1     2     3     4     5
## 10  19.2     6     1     2     3     4     5
## # ℹ 22 more rows
```

```r
# # getting custom summary functions with purrr and dplyr verbs
mtcars %>% 
  group_by(cyl) %>% 
  tidyr::nest() %>% 
  mutate(model = purrr::map(data, ~lm(qsec ~ hp, .)),
         coef  = purrr::map_dbl(model, ~coef(.)[2])) %>% 
  tidyr::unnest(data)
```

```
## # A tibble: 32 × 13
## # Groups:   cyl [3]
##      cyl   mpg  disp    hp  drat    wt  qsec    vs    am  gear  carb model 
##    <dbl> <dbl> <dbl> <dbl> <dbl> <dbl> <dbl> <dbl> <dbl> <dbl> <dbl> <list>
##  1     6  21    160    110  3.9   2.62  16.5     0     1     4     4 <lm>  
##  2     6  21    160    110  3.9   2.88  17.0     0     1     4     4 <lm>  
##  3     6  21.4  258    110  3.08  3.22  19.4     1     0     3     1 <lm>  
##  4     6  18.1  225    105  2.76  3.46  20.2     1     0     3     1 <lm>  
##  5     6  19.2  168.   123  3.92  3.44  18.3     1     0     4     4 <lm>  
##  6     6  17.8  168.   123  3.92  3.44  18.9     1     0     4     4 <lm>  
##  7     6  19.7  145    175  3.62  2.77  15.5     0     1     5     6 <lm>  
##  8     4  22.8  108     93  3.85  2.32  18.6     1     1     4     1 <lm>  
##  9     4  24.4  147.    62  3.69  3.19  20       1     0     4     2 <lm>  
## 10     4  22.8  141.    95  3.92  3.15  22.9     1     0     4     2 <lm>  
## # ℹ 22 more rows
## # ℹ 1 more variable: coef <dbl>
```
…
```r
# # yet better way to capture the results -- residuals.
# # then it can be combined with original data. 
mtcars %>%
  group_by(cyl) %>%
  do(model = lm(mpg ~ wt, data=.)) %>%
  do((function(reg_mod) {
    data.frame(reg_res = residuals(reg_mod$model))
  })(.))
```

```
## # A tibble: 32 × 1
## # Rowwise: 
##    reg_res
##      <dbl>
##  1 -3.67  
##  2  2.84  
##  3  1.02  
##  4  5.25  
##  5 -0.0513
##  6  4.69  
##  7 -4.15  
##  8 -1.34  
##  9 -1.49  
## 10 -0.627 
## # ℹ 22 more rows
```
…
```r
# # binding predictions to original dataframe
fertility %>%
  group_by(Year) %>%
  do(data.frame(.,pred = predict(mgcv::gam(fertility ~ s(AGE), data=.))))
```

```
## # A tibble: 60 × 4
## # Groups:   Year [2]
##      AGE  Year fertility    pred
##    <dbl> <dbl>     <dbl>   <dbl>
##  1    15  1930      5.17  -0.828
##  2    16  1930     14.2   16.2  
##  3    17  1930     27.7   33.4  
##  4    18  1930     44.6   51.1  
##  5    19  1930     59.1   69.2  
##  6    20  1930     89.7   87.3  
##  7    21  1930    105.   104.   
##  8    22  1930    120.   120.   
##  9    23  1930    137.   132.   
## 10    24  1930    149.   141.   
## # ℹ 50 more rows
```

```r
# # same but different approach
do.call(rbind,
        lapply(split(fertility, fertility$Year), function(df) {
          df$pred <- predict(mgcv::gam(fertility ~ s(AGE), data=df))
          df
        }))
```

```
## # A tibble: 60 × 4
##      AGE  Year fertility    pred
##  * <dbl> <dbl>     <dbl>   <dbl>
##  1    15  1930      5.17  -0.828
##  2    16  1930     14.2   16.2  
##  3    17  1930     27.7   33.4  
##  4    18  1930     44.6   51.1  
##  5    19  1930     59.1   69.2  
##  6    20  1930     89.7   87.3  
##  7    21  1930    105.   104.   
##  8    22  1930    120.   120.   
##  9    23  1930    137.   132.   
## 10    24  1930    149.   141.   
## # ℹ 50 more rows
```

```r
# # same using data.table library
fertility %>%
  data.table::data.table() %>%
  group_by(Year) %>%
  mutate(pred = predict(mgcv::gam(fertility ~ s(AGE))))
```

```
## # A tibble: 60 × 4
## # Groups:   Year [2]
##      AGE  Year fertility      pred
##    <dbl> <dbl>     <dbl> <dbl[1d]>
##  1    15  1930      5.17    -0.828
##  2    16  1930     14.2     16.2  
##  3    17  1930     27.7     33.4  
##  4    18  1930     44.6     51.1  
##  5    19  1930     59.1     69.2  
##  6    20  1930     89.7     87.3  
##  7    21  1930    105.     104.   
##  8    22  1930    120.     120.   
##  9    23  1930    137.     132.   
## 10    24  1930    149.     141.   
## # ℹ 50 more rows
```
…
```r
prediction <- by_cyl %>% tidyr::unnest(pred)
prediction
```

```
## # A tibble: 96 × 13
## # Groups:   cyl [3]
##      cyl data     mod    pars     .rownames      mpg  disp .fitted .resid   .hat
##    <dbl> <list>   <list> <list>   <chr>        <dbl> <dbl>   <dbl>  <dbl>  <dbl>
##  1     6 <tibble> <lm>   <tibble> Mazda RX4     21    160     23.0 -2.01  0.0418
##  2     6 <tibble> <lm>   <tibble> Mazda RX4 W…  21    160     23.0 -2.01  0.0418
##  3     6 <tibble> <lm>   <tibble> Datsun 710    22.8  108     25.1 -2.35  0.0629
##  4     6 <tibble> <lm>   <tibble> Hornet 4 Dr…  21.4  258     19.0  2.43  0.0328
##  5     6 <tibble> <lm>   <tibble> Hornet Spor…  18.7  360     14.8  3.94  0.0663
##  6     6 <tibble> <lm>   <tibble> Valiant       18.1  225     20.3 -2.23  0.0313
##  7     6 <tibble> <lm>   <tibble> Duster 360    14.3  360     14.8 -0.462 0.0663
##  8     6 <tibble> <lm>   <tibble> Merc 240D     24.4  147.    23.6  0.846 0.0461
##  9     6 <tibble> <lm>   <tibble> Merc 230      22.8  141.    23.8 -0.997 0.0482
## 10     6 <tibble> <lm>   <tibble> Merc 280      19.2  168.    22.7 -3.49  0.0396
## # ℹ 86 more rows
## # ℹ 3 more variables: .sigma <dbl>, .cooksd <dbl>, .std.resid <dbl>
```
…
